{
  "project_info": {
    "project_number": "754334577199",
    "project_id": "neopez",
    "storage_bucket": "neopez.appspot.com"
  },
  "client": [
    {
      "client_info": {
        "mobilesdk_app_id": "1:754334577199:android:6e609be60227766e914cda",
        "android_client_info": {
          "package_name": "com.example.neopez"
        }
      },
      "oauth_client": [
        {
          "client_id": "754334577199-re3s6sveq4hbd5ppuh9gkdnb615qeno8.apps.googleusercontent.com",
          "client_type": 1,
          "android_info": {
            "package_name": "com.example.neopez",
            "certificate_hash": "80efc6268e6e442f355a4319400dda7a5a3adb77"
          }
        },
        {
          "client_id": "754334577199-ge90tn0vlrqjhr4p4vequc7ca880hs9f.apps.googleusercontent.com",
          "client_type": 3
        }
      ],
      "api_key": [
        {
          "current_key": "AIzaSyApkWRSxBJb5GWYUYal9mI765-JOjHPQWo"
        }
      ],
      "services": {
        "appinvite_service": {
          "other_platform_oauth_client": [
            {
              "client_id": "754334577199-ge90tn0vlrqjhr4p4vequc7ca880hs9f.apps.googleusercontent.com",
              "client_type": 3
            }
          ]
        }
      }
    }
  ],
  "configuration_version": "1"
}